(kicad_pcb (version 20221018) (generator pcbnew)

  (general
    (thickness 1.6)
  )

  (paper "A4")
  (layers
    (0 "F.Cu" signal)
    (31 "B.Cu" signal)
    (32 "B.Adhes" user "B.Adhesive")
    (33 "F.Adhes" user "F.Adhesive")
    (34 "B.Paste" user)
    (35 "F.Paste" user)
    (36 "B.SilkS" user "B.Silkscreen")
    (37 "F.SilkS" user "F.Silkscreen")
    (38 "B.Mask" user)
    (39 "F.Mask" user)
    (40 "Dwgs.User" user "User.Drawings")
    (41 "Cmts.User" user "User.Comments")
    (42 "Eco1.User" user "User.Eco1")
    (43 "Eco2.User" user "User.Eco2")
    (44 "Edge.Cuts" user)
    (45 "Margin" user)
    (46 "B.CrtYd" user "B.Courtyard")
    (47 "F.CrtYd" user "F.Courtyard")
    (48 "B.Fab" user)
    (49 "F.Fab" user)
    (50 "User.1" user)
    (51 "User.2" user)
    (52 "User.3" user)
    (53 "User.4" user)
    (54 "User.5" user)
    (55 "User.6" user)
    (56 "User.7" user)
    (57 "User.8" user)
    (58 "User.9" user)
  )

  (setup
    (pad_to_mask_clearance 0)
    (pcbplotparams
      (layerselection 0x00010fc_ffffffff)
      (plot_on_all_layers_selection 0x0000000_00000000)
      (disableapertmacros false)
      (usegerberextensions false)
      (usegerberattributes true)
      (usegerberadvancedattributes true)
      (creategerberjobfile true)
      (dashed_line_dash_ratio 12.000000)
      (dashed_line_gap_ratio 3.000000)
      (svgprecision 4)
      (plotframeref false)
      (viasonmask false)
      (mode 1)
      (useauxorigin false)
      (hpglpennumber 1)
      (hpglpenspeed 20)
      (hpglpendiameter 15.000000)
      (dxfpolygonmode true)
      (dxfimperialunits true)
      (dxfusepcbnewfont true)
      (psnegative false)
      (psa4output false)
      (plotreference true)
      (plotvalue true)
      (plotinvisibletext false)
      (sketchpadsonfab false)
      (subtractmaskfromsilk false)
      (outputformat 1)
      (mirror false)
      (drillshape 1)
      (scaleselection 1)
      (outputdirectory "")
    )
  )

  (net 0 "")
  (net 1 "GNDREF")
  (net 2 "Net-(J2-Pin_2)")
  (net 3 "Net-(J2-Pin_3)")
  (net 4 "Net-(J2-Pin_4)")
  (net 5 "Net-(SW1-A)")
  (net 6 "Net-(SW3-A)")
  (net 7 "Net-(SW2-A)")

  (footprint "Resistor_THT:R_Axial_DIN0207_L6.3mm_D2.5mm_P7.62mm_Horizontal" (layer "F.Cu")
    (tstamp 03c27f28-a98e-4b34-902f-ff862159a1b2)
    (at 148.59 71.12)
    (descr "Resistor, Axial_DIN0207 series, Axial, Horizontal, pin pitch=7.62mm, 0.25W = 1/4W, length*diameter=6.3*2.5mm^2, http://cdn-reichelt.de/documents/datenblatt/B400/1_4W%23YAG.pdf")
    (tags "Resistor Axial_DIN0207 series Axial Horizontal pin pitch 7.62mm 0.25W = 1/4W length 6.3mm diameter 2.5mm")
    (property "Sheetfile" "status-light.kicad_sch")
    (property "Sheetname" "")
    (property "ki_description" "Resistor, small US symbol")
    (property "ki_keywords" "r resistor")
    (path "/35e53b90-f8a2-4319-8050-cff7647a2131")
    (attr through_hole)
    (fp_text reference "R1" (at 3.81 -2.37) (layer "F.SilkS")
        (effects (font (size 1 1) (thickness 0.15)))
      (tstamp 62521308-8eab-49d9-b6ad-19bcfad7423a)
    )
    (fp_text value "R_Small_US" (at 3.81 2.37) (layer "F.Fab")
        (effects (font (size 1 1) (thickness 0.15)))
      (tstamp a7df0c68-f065-49b8-850c-d24222846f21)
    )
    (fp_text user "${REFERENCE}" (at 3.81 0) (layer "F.Fab")
        (effects (font (size 1 1) (thickness 0.15)))
      (tstamp 4f465625-568e-4222-8750-4adc1d57e9b7)
    )
    (fp_line (start 0.54 -1.37) (end 7.08 -1.37)
      (stroke (width 0.12) (type solid)) (layer "F.SilkS") (tstamp c0ce0020-cce6-4048-b0f9-441c83092138))
    (fp_line (start 0.54 -1.04) (end 0.54 -1.37)
      (stroke (width 0.12) (type solid)) (layer "F.SilkS") (tstamp 2b660c25-f337-4693-beff-7313d4e88f40))
    (fp_line (start 0.54 1.04) (end 0.54 1.37)
      (stroke (width 0.12) (type solid)) (layer "F.SilkS") (tstamp c771f67d-2074-46de-8b13-8b0e10defc3e))
    (fp_line (start 0.54 1.37) (end 7.08 1.37)
      (stroke (width 0.12) (type solid)) (layer "F.SilkS") (tstamp 807da7be-74c6-41eb-a4e3-7647b121a99f))
    (fp_line (start 7.08 -1.37) (end 7.08 -1.04)
      (stroke (width 0.12) (type solid)) (layer "F.SilkS") (tstamp 49794825-2222-4a81-aa35-6188948f5968))
    (fp_line (start 7.08 1.37) (end 7.08 1.04)
      (stroke (width 0.12) (type solid)) (layer "F.SilkS") (tstamp 64ed46ed-9eb5-48e1-a735-5df42144a612))
    (fp_line (start -1.05 -1.5) (end -1.05 1.5)
      (stroke (width 0.05) (type solid)) (layer "F.CrtYd") (tstamp 84b285fd-f07a-4232-8613-ff8beb92b595))
    (fp_line (start -1.05 1.5) (end 8.67 1.5)
      (stroke (width 0.05) (type solid)) (layer "F.CrtYd") (tstamp 2c6ade31-a4ea-428d-b9ae-80e8aae00e3f))
    (fp_line (start 8.67 -1.5) (end -1.05 -1.5)
      (stroke (width 0.05) (type solid)) (layer "F.CrtYd") (tstamp 3cece474-45f1-41a5-be48-10e86ef744a2))
    (fp_line (start 8.67 1.5) (end 8.67 -1.5)
      (stroke (width 0.05) (type solid)) (layer "F.CrtYd") (tstamp bae9fc24-cd9c-4def-8bc4-15ea72dfa671))
    (fp_line (start 0 0) (end 0.66 0)
      (stroke (width 0.1) (type solid)) (layer "F.Fab") (tstamp f4f5d4df-a0cd-4c00-8441-4cb5343241a9))
    (fp_line (start 0.66 -1.25) (end 0.66 1.25)
      (stroke (width 0.1) (type solid)) (layer "F.Fab") (tstamp 608f7a75-fe29-4da2-9050-30f03d255ce9))
    (fp_line (start 0.66 1.25) (end 6.96 1.25)
      (stroke (width 0.1) (type solid)) (layer "F.Fab") (tstamp 1a688924-6300-4ff8-8457-71192a70f4c2))
    (fp_line (start 6.96 -1.25) (end 0.66 -1.25)
      (stroke (width 0.1) (type solid)) (layer "F.Fab") (tstamp 33b151e6-2d5a-4f2a-a537-9c3871dc7d05))
    (fp_line (start 6.96 1.25) (end 6.96 -1.25)
      (stroke (width 0.1) (type solid)) (layer "F.Fab") (tstamp 70225da6-aac1-412b-b2c4-2b3c6e1d46cf))
    (fp_line (start 7.62 0) (end 6.96 0)
      (stroke (width 0.1) (type solid)) (layer "F.Fab") (tstamp 0223ce32-b15a-417b-9357-6f528870dc10))
    (pad "1" thru_hole circle (at 0 0) (size 1.6 1.6) (drill 0.8) (layers "*.Cu" "*.Mask")
      (net 5 "Net-(SW1-A)") (pintype "passive") (tstamp 06e3201b-14de-49bb-8647-9f0a9f87300f))
    (pad "2" thru_hole oval (at 7.62 0) (size 1.6 1.6) (drill 0.8) (layers "*.Cu" "*.Mask")
      (net 1 "GNDREF") (pintype "passive") (tstamp 373b73b5-5233-4865-8640-cfb90d3676a6))
    (model "${KICAD6_3DMODEL_DIR}/Resistor_THT.3dshapes/R_Axial_DIN0207_L6.3mm_D2.5mm_P7.62mm_Horizontal.wrl"
      (offset (xyz 0 0 0))
      (scale (xyz 1 1 1))
      (rotate (xyz 0 0 0))
    )
  )

  (footprint "Resistor_THT:R_Axial_DIN0207_L6.3mm_D2.5mm_P7.62mm_Horizontal" (layer "F.Cu")
    (tstamp a1965bc5-cad8-4803-9fc0-ec38f91e9034)
    (at 148.59 79.22)
    (descr "Resistor, Axial_DIN0207 series, Axial, Horizontal, pin pitch=7.62mm, 0.25W = 1/4W, length*diameter=6.3*2.5mm^2, http://cdn-reichelt.de/documents/datenblatt/B400/1_4W%23YAG.pdf")
    (tags "Resistor Axial_DIN0207 series Axial Horizontal pin pitch 7.62mm 0.25W = 1/4W length 6.3mm diameter 2.5mm")
    (property "Sheetfile" "status-light.kicad_sch")
    (property "Sheetname" "")
    (property "ki_description" "Resistor, small US symbol")
    (property "ki_keywords" "r resistor")
    (path "/559d906b-bece-471e-a073-34238c121532")
    (attr through_hole)
    (fp_text reference "R3" (at 3.81 -2.37) (layer "F.SilkS")
        (effects (font (size 1 1) (thickness 0.15)))
      (tstamp 082d1919-3dea-456a-953e-dbd8d7e7e9cf)
    )
    (fp_text value "R_Small_US" (at 3.81 2.37) (layer "F.Fab")
        (effects (font (size 1 1) (thickness 0.15)))
      (tstamp 1c88512c-f662-4a68-b65b-8c53e732af0e)
    )
    (fp_text user "${REFERENCE}" (at 3.81 0) (layer "F.Fab")
        (effects (font (size 1 1) (thickness 0.15)))
      (tstamp 3932d21f-3e1d-42f0-9442-ccf54fad6279)
    )
    (fp_line (start 0.54 -1.37) (end 7.08 -1.37)
      (stroke (width 0.12) (type solid)) (layer "F.SilkS") (tstamp b895b4a3-26fd-4ca1-9ed9-efd9756a716a))
    (fp_line (start 0.54 -1.04) (end 0.54 -1.37)
      (stroke (width 0.12) (type solid)) (layer "F.SilkS") (tstamp 2cc4bdb9-bb7c-4ccd-af82-f585d31a3305))
    (fp_line (start 0.54 1.04) (end 0.54 1.37)
      (stroke (width 0.12) (type solid)) (layer "F.SilkS") (tstamp 9dedd368-17b3-47ed-9404-c93b1385280d))
    (fp_line (start 0.54 1.37) (end 7.08 1.37)
      (stroke (width 0.12) (type solid)) (layer "F.SilkS") (tstamp df8c016e-80b0-4d18-bca4-c168841da30a))
    (fp_line (start 7.08 -1.37) (end 7.08 -1.04)
      (stroke (width 0.12) (type solid)) (layer "F.SilkS") (tstamp efcedc2f-9837-4f6a-ac0a-c6fe63b295e2))
    (fp_line (start 7.08 1.37) (end 7.08 1.04)
      (stroke (width 0.12) (type solid)) (layer "F.SilkS") (tstamp 4844bfba-f662-4626-a92b-967b34f9de3b))
    (fp_line (start -1.05 -1.5) (end -1.05 1.5)
      (stroke (width 0.05) (type solid)) (layer "F.CrtYd") (tstamp fe7ee9b9-57b2-4cf5-ae98-1b0d191256e4))
    (fp_line (start -1.05 1.5) (end 8.67 1.5)
      (stroke (width 0.05) (type solid)) (layer "F.CrtYd") (tstamp 3ff80d4c-e031-4075-94e9-30be870e6fca))
    (fp_line (start 8.67 -1.5) (end -1.05 -1.5)
      (stroke (width 0.05) (type solid)) (layer "F.CrtYd") (tstamp 8c19acaf-c46f-47ef-9176-1bc2f6c281b9))
    (fp_line (start 8.67 1.5) (end 8.67 -1.5)
      (stroke (width 0.05) (type solid)) (layer "F.CrtYd") (tstamp 0beff44b-02e4-43db-a940-ba09c9ac0c33))
    (fp_line (start 0 0) (end 0.66 0)
      (stroke (width 0.1) (type solid)) (layer "F.Fab") (tstamp 4ebc6f30-eca6-4aa7-9a69-2538a9150b8f))
    (fp_line (start 0.66 -1.25) (end 0.66 1.25)
      (stroke (width 0.1) (type solid)) (layer "F.Fab") (tstamp 89876f2a-de20-4c12-a2a9-637c030d9768))
    (fp_line (start 0.66 1.25) (end 6.96 1.25)
      (stroke (width 0.1) (type solid)) (layer "F.Fab") (tstamp 8c12cea5-214b-4332-bd36-92c748105f25))
    (fp_line (start 6.96 -1.25) (end 0.66 -1.25)
      (stroke (width 0.1) (type solid)) (layer "F.Fab") (tstamp ee001bd9-eca9-48fd-a9a1-2b473aee2d51))
    (fp_line (start 6.96 1.25) (end 6.96 -1.25)
      (stroke (width 0.1) (type solid)) (layer "F.Fab") (tstamp 56d199c1-f958-4eb0-b8e6-ec372589402a))
    (fp_line (start 7.62 0) (end 6.96 0)
      (stroke (width 0.1) (type solid)) (layer "F.Fab") (tstamp 474a032b-d0e9-471c-ac17-0eee7f0d138c))
    (pad "1" thru_hole circle (at 0 0) (size 1.6 1.6) (drill 0.8) (layers "*.Cu" "*.Mask")
      (net 7 "Net-(SW2-A)") (pintype "passive") (tstamp 545a92cf-990c-47cf-a005-af9a9bc3ec4b))
    (pad "2" thru_hole oval (at 7.62 0) (size 1.6 1.6) (drill 0.8) (layers "*.Cu" "*.Mask")
      (net 1 "GNDREF") (pintype "passive") (tstamp e47ba503-68fd-4f10-8174-352507bb263a))
    (model "${KICAD6_3DMODEL_DIR}/Resistor_THT.3dshapes/R_Axial_DIN0207_L6.3mm_D2.5mm_P7.62mm_Horizontal.wrl"
      (offset (xyz 0 0 0))
      (scale (xyz 1 1 1))
      (rotate (xyz 0 0 0))
    )
  )

  (footprint "Resistor_THT:R_Axial_DIN0207_L6.3mm_D2.5mm_P7.62mm_Horizontal" (layer "F.Cu")
    (tstamp ef5ff75e-f9dc-4f95-a5fb-2897e05b2b1b)
    (at 148.59 75.17)
    (descr "Resistor, Axial_DIN0207 series, Axial, Horizontal, pin pitch=7.62mm, 0.25W = 1/4W, length*diameter=6.3*2.5mm^2, http://cdn-reichelt.de/documents/datenblatt/B400/1_4W%23YAG.pdf")
    (tags "Resistor Axial_DIN0207 series Axial Horizontal pin pitch 7.62mm 0.25W = 1/4W length 6.3mm diameter 2.5mm")
    (property "Sheetfile" "status-light.kicad_sch")
    (property "Sheetname" "")
    (property "ki_description" "Resistor, small US symbol")
    (property "ki_keywords" "r resistor")
    (path "/a6138ec8-0ec9-4df8-91db-4515fb0a0b23")
    (attr through_hole)
    (fp_text reference "R2" (at 3.81 -2.37) (layer "F.SilkS")
        (effects (font (size 1 1) (thickness 0.15)))
      (tstamp 45ff92f7-8724-44e6-8c9a-53c19a1dcc19)
    )
    (fp_text value "R_Small_US" (at 3.81 2.37) (layer "F.Fab")
        (effects (font (size 1 1) (thickness 0.15)))
      (tstamp c82b3374-a409-4f7b-b943-305df2fe1bc2)
    )
    (fp_text user "${REFERENCE}" (at 3.81 0) (layer "F.Fab")
        (effects (font (size 1 1) (thickness 0.15)))
      (tstamp 64280d44-2a7e-4821-b8ed-5f2a777c0e95)
    )
    (fp_line (start 0.54 -1.37) (end 7.08 -1.37)
      (stroke (width 0.12) (type solid)) (layer "F.SilkS") (tstamp 368dbc61-f361-40ab-98bf-d86c84453a38))
    (fp_line (start 0.54 -1.04) (end 0.54 -1.37)
      (stroke (width 0.12) (type solid)) (layer "F.SilkS") (tstamp 7704bd1a-353e-4ff7-bd3d-97e74dd43860))
    (fp_line (start 0.54 1.04) (end 0.54 1.37)
      (stroke (width 0.12) (type solid)) (layer "F.SilkS") (tstamp fb235de2-f948-47df-b745-10409f91fcff))
    (fp_line (start 0.54 1.37) (end 7.08 1.37)
      (stroke (width 0.12) (type solid)) (layer "F.SilkS") (tstamp c84f5a0c-01b2-42a0-8f49-50bac1495422))
    (fp_line (start 7.08 -1.37) (end 7.08 -1.04)
      (stroke (width 0.12) (type solid)) (layer "F.SilkS") (tstamp 4b000de8-c3a7-4750-a9c3-58ee70852b6d))
    (fp_line (start 7.08 1.37) (end 7.08 1.04)
      (stroke (width 0.12) (type solid)) (layer "F.SilkS") (tstamp b50a87b1-7239-4742-b7a7-76380d111207))
    (fp_line (start -1.05 -1.5) (end -1.05 1.5)
      (stroke (width 0.05) (type solid)) (layer "F.CrtYd") (tstamp 2726fa50-1714-41a9-8df6-12be51a9b974))
    (fp_line (start -1.05 1.5) (end 8.67 1.5)
      (stroke (width 0.05) (type solid)) (layer "F.CrtYd") (tstamp 8384f99d-7fed-46a6-8578-004630bc1104))
    (fp_line (start 8.67 -1.5) (end -1.05 -1.5)
      (stroke (width 0.05) (type solid)) (layer "F.CrtYd") (tstamp a9d62253-84f0-40df-b51b-2633d293a7e4))
    (fp_line (start 8.67 1.5) (end 8.67 -1.5)
      (stroke (width 0.05) (type solid)) (layer "F.CrtYd") (tstamp 1d458b31-ccc8-473e-9de3-82dab831fda4))
    (fp_line (start 0 0) (end 0.66 0)
      (stroke (width 0.1) (type solid)) (layer "F.Fab") (tstamp 38527456-74ea-49fb-9ca1-7a87e22a6ef9))
    (fp_line (start 0.66 -1.25) (end 0.66 1.25)
      (stroke (width 0.1) (type solid)) (layer "F.Fab") (tstamp 9e6e2faf-c9ff-469c-a92c-088b88661056))
    (fp_line (start 0.66 1.25) (end 6.96 1.25)
      (stroke (width 0.1) (type solid)) (layer "F.Fab") (tstamp 7257ffbf-955a-477c-ac37-d7ba12339d04))
    (fp_line (start 6.96 -1.25) (end 0.66 -1.25)
      (stroke (width 0.1) (type solid)) (layer "F.Fab") (tstamp 55d4a9eb-8115-4ea7-80c0-28a5024b80a4))
    (fp_line (start 6.96 1.25) (end 6.96 -1.25)
      (stroke (width 0.1) (type solid)) (layer "F.Fab") (tstamp 7195e174-3150-4984-97bb-1e5afa9c033a))
    (fp_line (start 7.62 0) (end 6.96 0)
      (stroke (width 0.1) (type solid)) (layer "F.Fab") (tstamp 8ae5902f-0ee8-480e-99ca-07839419d7d0))
    (pad "1" thru_hole circle (at 0 0) (size 1.6 1.6) (drill 0.8) (layers "*.Cu" "*.Mask")
      (net 6 "Net-(SW3-A)") (pintype "passive") (tstamp b33107fc-c260-4659-8c16-55e5992aa3b3))
    (pad "2" thru_hole oval (at 7.62 0) (size 1.6 1.6) (drill 0.8) (layers "*.Cu" "*.Mask")
      (net 1 "GNDREF") (pintype "passive") (tstamp de524838-2a5a-468d-abf7-302ff394e9bd))
    (model "${KICAD6_3DMODEL_DIR}/Resistor_THT.3dshapes/R_Axial_DIN0207_L6.3mm_D2.5mm_P7.62mm_Horizontal.wrl"
      (offset (xyz 0 0 0))
      (scale (xyz 1 1 1))
      (rotate (xyz 0 0 0))
    )
  )

  (footprint "Connector_PinHeader_2.54mm:PinHeader_1x04_P2.54mm_Vertical" (layer "F.Cu")
    (tstamp fb93fede-4776-462a-9e42-d610dd12dfe1)
    (at 131.99 71.42)
    (descr "Through hole straight pin header, 1x04, 2.54mm pitch, single row")
    (tags "Through hole pin header THT 1x04 2.54mm single row")
    (property "Sheetfile" "status-light.kicad_sch")
    (property "Sheetname" "")
    (property "ki_description" "Generic connector, single row, 01x04, script generated")
    (property "ki_keywords" "connector")
    (path "/6de9f341-9c43-46b1-83f8-0fd4c47ca686")
    (attr through_hole)
    (fp_text reference "J2" (at 0 -2.33) (layer "F.SilkS")
        (effects (font (size 1 1) (thickness 0.15)))
      (tstamp 0193b57f-a613-48cc-920c-b26a4c29055e)
    )
    (fp_text value "Conn_01x04_Socket" (at 12.7 9.95) (layer "F.Fab")
        (effects (font (size 1 1) (thickness 0.15)))
      (tstamp 3649b2db-dac5-49e9-88a5-160ae83f85e9)
    )
    (fp_text user "${REFERENCE}" (at 0 3.81 90) (layer "F.Fab")
        (effects (font (size 1 1) (thickness 0.15)))
      (tstamp 09c1ce86-2fca-44e3-af71-9090e4cd99e0)
    )
    (fp_line (start -1.33 -1.33) (end 0 -1.33)
      (stroke (width 0.12) (type solid)) (layer "F.SilkS") (tstamp e36eb390-4ce2-42c4-acf9-fd76993e8893))
    (fp_line (start -1.33 0) (end -1.33 -1.33)
      (stroke (width 0.12) (type solid)) (layer "F.SilkS") (tstamp 8d863307-846d-4b1b-bf33-08eaaf08a92e))
    (fp_line (start -1.33 1.27) (end -1.33 8.95)
      (stroke (width 0.12) (type solid)) (layer "F.SilkS") (tstamp 08543fdd-94a9-45c0-8f9e-6fc0b1b3bb8d))
    (fp_line (start -1.33 1.27) (end 1.33 1.27)
      (stroke (width 0.12) (type solid)) (layer "F.SilkS") (tstamp 5489bf6b-30b6-4254-807b-53501d2ce932))
    (fp_line (start -1.33 8.95) (end 1.33 8.95)
      (stroke (width 0.12) (type solid)) (layer "F.SilkS") (tstamp 64364e06-9cf5-4921-91cf-be3caf2c085f))
    (fp_line (start 1.33 1.27) (end 1.33 8.95)
      (stroke (width 0.12) (type solid)) (layer "F.SilkS") (tstamp ecccd4e4-d89a-46b6-873d-d58baad0efe1))
    (fp_line (start -1.8 -1.8) (end -1.8 9.4)
      (stroke (width 0.05) (type solid)) (layer "F.CrtYd") (tstamp a4fed008-38bc-4b5d-8bd1-c9478f880ae4))
    (fp_line (start -1.8 9.4) (end 1.8 9.4)
      (stroke (width 0.05) (type solid)) (layer "F.CrtYd") (tstamp c5b3835e-aead-4bba-b232-316f20a2c2f2))
    (fp_line (start 1.8 -1.8) (end -1.8 -1.8)
      (stroke (width 0.05) (type solid)) (layer "F.CrtYd") (tstamp 9af9b1fa-b65b-4cef-9a0f-421232662ce9))
    (fp_line (start 1.8 9.4) (end 1.8 -1.8)
      (stroke (width 0.05) (type solid)) (layer "F.CrtYd") (tstamp c3a8c817-a299-4587-87c0-5c9a9eb46da2))
    (fp_line (start -1.27 -0.635) (end -0.635 -1.27)
      (stroke (width 0.1) (type solid)) (layer "F.Fab") (tstamp b10bf1af-b95c-4a37-b62d-e6d5a4fdd6f2))
    (fp_line (start -1.27 8.89) (end -1.27 -0.635)
      (stroke (width 0.1) (type solid)) (layer "F.Fab") (tstamp 4255bb9e-f3da-4392-a694-1e6a2e4dba09))
    (fp_line (start -0.635 -1.27) (end 1.27 -1.27)
      (stroke (width 0.1) (type solid)) (layer "F.Fab") (tstamp 3f8126de-5737-4b08-a3dc-527957412ad4))
    (fp_line (start 1.27 -1.27) (end 1.27 8.89)
      (stroke (width 0.1) (type solid)) (layer "F.Fab") (tstamp 151ea9c3-a099-40c1-935d-b2f3532dcd71))
    (fp_line (start 1.27 8.89) (end -1.27 8.89)
      (stroke (width 0.1) (type solid)) (layer "F.Fab") (tstamp 4158a534-275d-4d36-852b-c0443412a15e))
    (pad "1" thru_hole rect (at 0 0) (size 1.7 1.7) (drill 1) (layers "*.Cu" "*.Mask")
      (net 1 "GNDREF") (pinfunction "Pin_1") (pintype "passive") (tstamp 4f294843-9222-415f-bfef-dba141f44f21))
    (pad "2" thru_hole oval (at 0 2.54) (size 1.7 1.7) (drill 1) (layers "*.Cu" "*.Mask")
      (net 2 "Net-(J2-Pin_2)") (pinfunction "Pin_2") (pintype "passive") (tstamp e37e78c4-0e31-4e28-8aef-75f69086b1db))
    (pad "3" thru_hole oval (at 0 5.08) (size 1.7 1.7) (drill 1) (layers "*.Cu" "*.Mask")
      (net 3 "Net-(J2-Pin_3)") (pinfunction "Pin_3") (pintype "passive") (tstamp 439d19a2-0e3a-4803-aac9-f1d22c40750d))
    (pad "4" thru_hole oval (at 0 7.62) (size 1.7 1.7) (drill 1) (layers "*.Cu" "*.Mask")
      (net 4 "Net-(J2-Pin_4)") (pinfunction "Pin_4") (pintype "passive") (tstamp 3b3c3688-ca52-4976-aef0-4c01ce730097))
    (model "${KICAD6_3DMODEL_DIR}/Connector_PinHeader_2.54mm.3dshapes/PinHeader_1x04_P2.54mm_Vertical.wrl"
      (offset (xyz 0 0 0))
      (scale (xyz 1 1 1))
      (rotate (xyz 0 0 0))
    )
  )

)
